@startuml

title __New Impacts on DB's Class Diagram__\n



  namespace fr.cnam.foad.nfa035.badges.fileutils.streaming.serializer {
    interface fr.cnam.foad.nfa035.badges.fileutils.streaming.serializer.WalletSerializer {
        {abstract} + rollback()
    }
  }
namespace fr.cnam.foad.nfa035.badges.fileutils.streaming.serializer {
    interface fr.cnam.foad.nfa035.badges.fileutils.streaming.serializer.ImageStreamingSerializer {
        {abstract} + getSerializingStream()
        {abstract} + getSourceInputStream()
        {abstract} + serialize()
    }
  }

  fr.cnam.foad.nfa035.badges.fileutils.streaming.serializer.AbstractWalletSerializer .up.|> fr.cnam.foad.nfa035.badges.fileutils.streaming.serializer.WalletSerializer
  fr.cnam.foad.nfa035.badges.fileutils.streaming.serializer.AbstractWalletSerializer -up-|> fr.cnam.foad.nfa035.badges.fileutils.streaming.serializer.AbstractStreamingImageSerializer
fr.cnam.foad.nfa035.badges.fileutils.streaming.serializer.AbstractStreamingImageSerializer .up.|> fr.cnam.foad.nfa035.badges.fileutils.streaming.serializer.ImageStreamingSerializer

  namespace fr.cnam.foad.nfa035.badges.fileutils.streaming.serializer {
    abstract class fr.cnam.foad.nfa035.badges.fileutils.streaming.serializer.AbstractStreamingImageSerializer {
        + serialize()
    }
  }


  namespace fr.cnam.foad.nfa035.badges.fileutils.streaming.serializer {
    abstract class fr.cnam.foad.nfa035.badges.fileutils.streaming.serializer.AbstractWalletSerializer {
        {abstract} + serialize()
    }
  }


  namespace fr.cnam.foad.nfa035.badges.fileutils.streaming.serializer {
    namespace impl.db{
             namespace json {
               class fr.cnam.foad.nfa035.badges.fileutils.streaming.serializer.impl.db.json.JSONWalletSerializerDAImpl {
              + JSONWalletSerializerDAImpl()
              + getSerializingStream()
              + getSourceInputStream()
              + rollback()
              + serialize()
          }
       }
    }
  }


  fr.cnam.foad.nfa035.badges.fileutils.streaming.serializer.impl.db.json.JSONWalletSerializerDAImpl -up-|> fr.cnam.foad.nfa035.badges.fileutils.streaming.serializer.AbstractWalletSerializer


  namespace fr.cnam.foad.nfa035.badges.fileutils.streaming.serializer {
    namespace impl.db {
        class fr.cnam.foad.nfa035.badges.fileutils.streaming.serializer.impl.db.MetadataDeserializerDatabaseImpl {
            {static} - LOG : Logger
            + deserialize()
            + markAsDeleted()
            {static} + readLastLine()
      }
    }
  }



  namespace fr.cnam.foad.nfa035.badges.fileutils.streaming.serializer {
    namespace impl.db {
        class fr.cnam.foad.nfa035.badges.fileutils.streaming.serializer.impl.db.WalletSerializerDirectAccessImpl {
            + WalletSerializerDirectAccessImpl()
            + getMetas()
            + getSerializingStream()
            + getSourceInputStream()
            + serialize()
      }
    }
  }


  fr.cnam.foad.nfa035.badges.fileutils.streaming.serializer.impl.db.MetadataDeserializerDatabaseImpl .up.|> fr.cnam.foad.nfa035.badges.fileutils.streaming.serializer.MetadataDeserializer
  fr.cnam.foad.nfa035.badges.fileutils.streaming.serializer.impl.db.WalletSerializerDirectAccessImpl -up-|> fr.cnam.foad.nfa035.badges.fileutils.streaming.serializer.AbstractWalletSerializer

namespace fr.cnam.foad.nfa035.badges.fileutils.streaming.serializer {
    namespace impl.db {
        namespace json {
          class fr.cnam.foad.nfa035.badges.fileutils.streaming.serializer.impl.db.json.MetadataDeserializerJSONImpl {
              {static} - LOG : Logger
              + deserialize()
              + markAsDeleted()
        }
      }
    }
  }
  fr.cnam.foad.nfa035.badges.fileutils.streaming.serializer.impl.db.json.MetadataDeserializerJSONImpl .up.|> fr.cnam.foad.nfa035.badges.fileutils.streaming.serializer.MetadataDeserializer
  namespace fr.cnam.foad.nfa035.badges.fileutils.streaming.serializer {
    interface fr.cnam.foad.nfa035.badges.fileutils.streaming.serializer.MetadataDeserializer {
        {abstract} + deserialize()
        {abstract} + markAsDeleted()
    }
  }

right footer
Ce diagramme résume les impacts sur le module badges-wallet, concernant la sérialisation
endfooter

@enduml
